<?xml version="1.0" encoding="UTF-8" standalone="no"?>
<svg width="16px" height="17px" viewBox="0 0 16 17" version="1.1" xmlns="http://www.w3.org/2000/svg" xmlns:xlink="http://www.w3.org/1999/xlink">
    <!-- Generator: Sketch 50.2 (55047) - http://www.bohemiancoding.com/sketch -->
    <title>time</title>
    <desc>Created with Sketch.</desc>
    <defs></defs>
    <g id="V3" stroke="none" stroke-width="1" fill="none" fill-rule="evenodd">
        <g id="News-&amp;-Media" transform="translate(-215.000000, -814.000000)" fill="#4B555F">
            <path d="M222.976132,817.104198 C223.302288,817.104198 223.566639,817.368548 223.566639,817.694705 L223.566639,822.615592 C223.566639,822.778769 223.501289,822.926986 223.394407,823.033868 L220.189729,826.232445 C219.959037,826.463136 219.589774,826.463136 219.35928,826.232445 C219.128785,826.001754 219.128785,825.632687 219.35928,825.401996 L222.385625,822.369548 L222.385625,817.694705 C222.385625,817.368548 222.649976,817.104198 222.976132,817.104198 M222.976132,816.120021 C219.381719,816.120021 216.48056,819.021179 216.48056,822.615592 C216.48056,826.210006 219.381719,829.111164 222.976132,829.111164 C226.570545,829.111164 229.471704,826.210006 229.471704,822.615592 C229.471704,819.021179 226.570545,816.120021 222.976132,816.120021 M222.976132,814.939007 C227.208883,814.939007 230.652717,818.383038 230.652717,822.615592 C230.652717,826.848343 227.208883,830.292177 222.976132,830.292177 C218.743578,830.292177 215.299547,826.848343 215.299547,822.615592 C215.299547,818.383038 218.743578,814.939007 222.976132,814.939007" id="time"></path>
        </g>
    </g>
</svg>